<?xml version="1.0" encoding="UTF-8" standalone="no"?>
<svg
   xmlns:dc="http://purl.org/dc/elements/1.1/"
   xmlns:cc="http://creativecommons.org/ns#"
   xmlns:rdf="http://www.w3.org/1999/02/22-rdf-syntax-ns#"
   xmlns:svg="http://www.w3.org/2000/svg"
   xmlns="http://www.w3.org/2000/svg"
   xmlns:xlink="http://www.w3.org/1999/xlink"
   xmlns:sodipodi="http://sodipodi.sourceforge.net/DTD/sodipodi-0.dtd"
   xmlns:inkscape="http://www.inkscape.org/namespaces/inkscape"
   sodipodi:docname="Futify_logo_idea_v1.svg"
   inkscape:version="1.0 (4035a4fb49, 2020-05-01)"
   id="svg1077"
   version="1.1"
   viewBox="0 0 70.114582 70.114585"
   height="265"
   width="265">
  <defs
     id="defs1071">
    <radialGradient
       inkscape:collect="always"
       xlink:href="#linearGradient1051"
       id="radialGradient1053"
       cx="21.731579"
       cy="54.85783"
       fx="21.731579"
       fy="54.85783"
       r="35.057293"
       gradientTransform="matrix(1.1202307,1.4394983,-0.78918228,0.61415903,30.036059,-42.183831)"
       gradientUnits="userSpaceOnUse" />
    <linearGradient
       inkscape:collect="always"
       id="linearGradient1051">
      <stop
         style="stop-color:#3eb34f;stop-opacity:1;"
         offset="0"
         id="stop1047" />
      <stop
         style="stop-color:#45c659;stop-opacity:1"
         offset="1"
         id="stop1049" />
    </linearGradient>
  </defs>
  <sodipodi:namedview
     inkscape:window-maximized="1"
     inkscape:window-y="28"
     inkscape:window-x="64"
     inkscape:window-height="1022"
     inkscape:window-width="1856"
     units="px"
     showgrid="false"
     inkscape:document-rotation="0"
     inkscape:current-layer="g1664"
     inkscape:document-units="mm"
     inkscape:cy="140.47729"
     inkscape:cx="149.94816"
     inkscape:zoom="1.979899"
     inkscape:pageshadow="2"
     inkscape:pageopacity="0.0"
     borderopacity="1.0"
     bordercolor="#666666"
     pagecolor="#ffffff"
     id="base" />
  <metadata
     id="metadata1074">
    <rdf:RDF>
      <cc:Work
         rdf:about="">
        <dc:format>image/svg+xml</dc:format>
        <dc:type
           rdf:resource="http://purl.org/dc/dcmitype/StillImage" />
        <dc:title></dc:title>
      </cc:Work>
    </rdf:RDF>
  </metadata>
  <g
     id="layer1"
     inkscape:groupmode="layer"
     inkscape:label="Ebene 1">
    <g
       transform="translate(0.47247148,-8.5989571)"
       id="g1664">
      <rect
         ry="0"
         rx="0"
         y="8.5989571"
         x="-0.47247148"
         height="70.114578"
         width="70.114586"
         id="rect1001"
         style="fill:url(#radialGradient1053);fill-opacity:1;stroke:none;stroke-width:0.563999" />
      <path
         sodipodi:nodetypes="ccccc"
         d="m 28.618395,8.5999035 41.023717,-9.44e-4 V 78.713543 l -28.931864,-0.0168 z"
         inkscape:transform-center-y="-42.444988"
         inkscape:transform-center-x="-16.260494"
         style="fill:#000000;fill-opacity:1;stroke:none;stroke-width:0.563999;opacity:0.09613263"
         id="rect1007" />
      <path
         sodipodi:nodetypes="cccccccccccccccccccccc"
         d="m 30.806206,21.062064 c -2.145366,0.701111 -3.798084,1.670921 -3.67129,2.960222 l 5.273746,32.07661 c -1.92455,-0.749916 -4.167121,-1.148857 -6.458433,-1.148932 -6.573263,3.5e-5 -11.9019,3.213712 -11.901854,7.17795 -4.6e-5,3.964239 5.328591,7.177908 11.901854,7.177948 6.573263,-4e-5 11.901902,-3.213709 11.901855,-7.177948 -1.167646,-8.665252 -3.162091,-16.861509 -4.591,-25.552833 5.545248,-1.640849 12.813199,-0.97218 17.213088,1.706337 0.566261,0.346345 1.306324,-0.103108 1.652894,-0.671441 0.346345,-0.566491 0.167667,-1.564576 -0.399055,-1.910688 C 45.074544,32.354113 39.181932,32.379354 32.8708,33.673167 l -0.505651,-3.076071 c 5.853158,-1.637753 14.349944,-1.509028 19.484856,1.596436 0.706731,0.43454 1.63199,0.212458 2.068142,-0.495195 0.434539,-0.70604 0.212212,-1.631561 -0.494519,-2.066793 C 46.444115,26.313675 38.731606,25.785787 31.874339,27.61244 l -0.484063,-2.943838 c 5.555512,-2.251486 15.751712,-2.692083 22.108313,1.256056 0.85503,0.508921 1.963121,0.226306 2.471587,-0.630798 0.507992,-0.855724 0.226867,-1.962664 -0.630468,-2.471584 -8.039981,-3.595541 -16.676523,-4.249403 -24.533502,-1.760212 z"
         style="fill:#f7f7f7;fill-opacity:1;stroke:none;stroke-width:0.563999"
         id="rect947" />
      <path
         d="m 40.675383,19.57105 c -3.356948,-0.01273 -6.677265,0.479631 -9.869164,1.490866 -2.145366,0.701112 -3.797888,1.671241 -3.671094,2.960542 l 5.29e-4,0.0016 c 0.10559,-1.159087 1.673746,-2.044941 3.670578,-2.697509 7.856979,-2.489192 16.493405,-1.834928 24.533386,1.760614 0.525884,0.312169 0.8338,0.849236 0.876949,1.415418 0.04674,-0.658884 -0.269561,-1.319451 -0.876949,-1.680001 -4.773739,-2.134852 -9.75791,-3.232894 -14.664221,-3.251481 z m -9.244396,5.346443 c -0.01331,0.0053 -0.02758,0.01013 -0.04083,0.0155 l 0.484209,2.944005 c 6.857267,-1.826654 14.569559,-1.298871 21.549071,2.018999 0.421056,0.259299 0.668814,0.693055 0.709518,1.150318 0.04849,-0.549428 -0.207608,-1.105807 -0.709518,-1.414901 -6.979512,-3.31787 -14.691804,-3.845653 -21.549071,-2.018999 z m 0.976167,5.933488 c -0.01376,0.0038 -0.02811,0.007 -0.04186,0.01085 l 0.505394,3.075781 c 6.311135,-1.293812 12.203782,-1.318942 18.857248,2.026233 0.335863,0.205123 0.531604,0.639381 0.566373,1.076939 0.0404,-0.517113 -0.162092,-1.094613 -0.566373,-1.341523 -6.653463,-3.345177 -12.54611,-3.320047 -18.857245,-2.026234 z m 0.896586,5.976898 c -0.01416,0.0042 -0.02875,0.0077 -0.04289,0.01188 1.425546,8.670862 3.413895,16.849328 4.582668,25.491985 0.0031,-0.06791 0.0088,-0.135242 0.0088,-0.203607 -1.15629,-8.58098 -3.122784,-16.702911 -4.54856,-25.300263 z m -7.353557,18.121892 c -6.573261,3.2e-5 -11.901644,3.214132 -11.901598,7.178371 -10e-7,0.04442 0.0044,0.08807 0.0057,0.132292 0.117363,-3.902967 5.396202,-7.046048 11.895914,-7.046079 2.291314,7.1e-5 4.533973,0.399367 6.458523,1.149283 l -0.04599,-0.281119 c -1.91443,-0.738614 -4.139118,-1.132676 -6.41253,-1.132748 z"
         style="fill:#ffffff;fill-opacity:1;stroke:none;stroke-width:0.563999"
         id="path1042" />
    </g>
  </g>
</svg>
